<?xml version="1.0" encoding="utf-8"?>
<!-- Generator: Adobe Illustrator 16.0.0, SVG Export Plug-In . SVG Version: 6.00 Build 0)  -->
<!DOCTYPE svg PUBLIC "-//W3C//DTD SVG 1.1//EN" "http://www.w3.org/Graphics/SVG/1.1/DTD/svg11.dtd">
<svg version="1.1" id="Layer_1" xmlns="http://www.w3.org/2000/svg" xmlns:xlink="http://www.w3.org/1999/xlink" x="0px" y="0px"
	 width="400px" height="400px" viewBox="0 0 400 400" enable-background="new 0 0 400 400" xml:space="preserve">
<g>
	<path fill-rule="evenodd" clip-rule="evenodd" d="M232.262,314.495c-31.521,0-62.369,0-93.132,0
		c-8.146,30.963-23.961,45.63-48.12,44.876c-23.192-0.723-38.591-16.028-44.824-45.221c-10.698,0-21.588-0.044-32.478,0.016
		c-7.968,0.044-11.733-3.831-11.705-11.784c0.069-19.233,0.107-38.466-0.018-57.697c-0.057-8.643,4.089-12.218,12.543-12.054
		c11.988,0.229,23.983,0.058,37.271,0.058c0-19.604-0.065-38.329,0.015-57.051c0.16-38.039-4.218-33.245,34-33.473
		c13.875-0.082,27.753-0.014,42.938-0.014c0-26.38-0.001-51.892,0.001-77.402c0-3.77-0.008-7.542,0.025-11.312
		c0.065-7.486,3.965-10.888,11.342-10.879c34.693,0.042,69.385,0.022,104.079,0.02c7.375,0,11.228,3.654,11.266,11.054
		c0.055,10.935,0.809,21.965-0.438,32.755c-0.436,3.764-5.92,6.944-9.099,10.391c-2.836-3.391-7.535-6.492-8.123-10.233
		c-1.256-8.021-0.385-16.374-0.385-25.224c-30.196,0-59.467,0-89.649,0c0,26.24,0,52.761,0,79.91
		c8.497,0.79,19.326-1.185,25.47,3.282c5.258,3.824,5.145,15.031,7.725,24.084c17.241,0,36.233,0,56.428,0
		c0-13.741,0.082-27.203-0.035-40.666c-0.058-6.646,1.151-12.861,9.178-12.69c7.876,0.168,9.063,6.396,8.999,13.016
		c-0.126,13.156-0.038,26.313-0.038,41.055c15.118,0,29.677,0.374,44.207-0.122c10.683-0.367,15.086,3.891,14.762,14.642
		c-0.476,15.77-0.122,31.568-0.122,48.099c12.123,0,23.551,0,36.211,0c0-4.248,0-8.275,0-12.306c0-40.727,0.17-81.455-0.144-122.18
		c-0.063-7.963,2.61-12.692,10.038-15.481c9.153-3.438,17.86-8.262,27.211-10.867c3.325-0.928,7.972,2.877,12.015,4.524
		c-1.662,3.775-2.827,7.91-5.188,11.184c-1.326,1.839-4.533,2.73-7.056,3.231c-16.355,3.256-19.497,13.235-19.205,29.076
		c1.095,59.562,0.453,119.157,0.427,178.737c-0.005,14.506-1.788,16.254-16.25,16.308c-9.384,0.035-18.767,0.007-27.958,0.007
		c-6.639,30.209-22.924,45.611-47.12,45.227C253.648,359.011,236.979,342.706,232.262,314.495z M20.375,296.056
		c6.218,0,11.467-0.436,16.617,0.097c8.876,0.918,14.554-1.713,20.267-9.576c18.018-24.793,54.563-23.479,72.206,2.111
		c3.924,5.69,7.751,7.635,14.495,7.538c27.878-0.404,55.772,0.1,83.644-0.458c4.229-0.086,9.866-2.936,12.335-6.335
		c19.999-27.541,56.541-27.506,76.327,0.396c1.756,2.474,4.512,5.701,7.023,5.906c8.826,0.724,17.748,0.281,26.364,0.281
		c0-15.963,0-30.408,0-44.302c-110.329,0-219.756,0-329.279,0C20.375,266.545,20.375,280.449,20.375,296.056z M160.014,161.14
		c-30.67,0-60.176,0-89.516,0c0,24.099,0,47.307,0,70.861c30.092,0,59.595,0,89.516,0
		C160.014,208.109,160.014,184.903,160.014,161.14z M179.05,231.879c39.497,0,78.045,0,116.261,0c0-15.259,0-29.7,0-43.858
		c-39.209,0-77.488,0-116.261,0C179.05,202.786,179.05,216.954,179.05,231.879z M119.633,313.774
		c-0.208-15.033-12.73-27.083-27.783-26.733c-14.594,0.34-26.345,12.302-26.44,26.915c-0.1,15.078,12.13,27.364,27.188,27.317
		C107.627,341.228,119.839,328.805,119.633,313.774z M305.222,314.663c0.285-15.014-11.865-27.492-26.897-27.62
		c-14.611-0.126-26.768,11.453-27.317,26.022c-0.57,15.061,11.273,27.767,26.287,28.206
		C292.291,341.712,304.937,329.662,305.222,314.663z"/>
</g>
</svg>
